^C:\USERS\JECKBRON101\DOWNLOADS\01_Y2S2_ASSIGN\DM2240_ADVGAMEDEVTECH\A1_SOURCETREE\COMMON\SOURCE\CAMERABASE.CPP|C:\USERS\JECKBRON101\DOWNLOADS\01_Y2S2_ASSIGN\DM2240_ADVGAMEDEVTECH\A1_SOURCETREE\COMMON\SOURCE\COLLIDER\COLLIDER.CPP|C:\USERS\JECKBRON101\DOWNLOADS\01_Y2S2_ASSIGN\DM2240_ADVGAMEDEVTECH\A1_SOURCETREE\COMMON\SOURCE\ENTITYBASE.CPP|C:\USERS\JECKBRON101\DOWNLOADS\01_Y2S2_ASSIGN\DM2240_ADVGAMEDEVTECH\A1_SOURCETREE\COMMON\SOURCE\FPSCOUNTER.CPP|C:\USERS\JECKBRON101\DOWNLOADS\01_Y2S2_ASSIGN\DM2240_ADVGAMEDEVTECH\A1_SOURCETREE\COMMON\SOURCE\GRAPHICSMANAGER.CPP|C:\USERS\JECKBRON101\DOWNLOADS\01_Y2S2_ASSIGN\DM2240_ADVGAMEDEVTECH\A1_SOURCETREE\COMMON\SOURCE\KEYBOARDCONTROLLER.CPP|C:\USERS\JECKBRON101\DOWNLOADS\01_Y2S2_ASSIGN\DM2240_ADVGAMEDEVTECH\A1_SOURCETREE\COMMON\SOURCE\LIGHTBASE.CPP|C:\USERS\JECKBRON101\DOWNLOADS\01_Y2S2_ASSIGN\DM2240_ADVGAMEDEVTECH\A1_SOURCETREE\COMMON\SOURCE\LOADOBJ.CPP|C:\USERS\JECKBRON101\DOWNLOADS\01_Y2S2_ASSIGN\DM2240_ADVGAMEDEVTECH\A1_SOURCETREE\COMMON\SOURCE\LOADTGA.CPP|C:\USERS\JECKBRON101\DOWNLOADS\01_Y2S2_ASSIGN\DM2240_ADVGAMEDEVTECH\A1_SOURCETREE\COMMON\SOURCE\MATHUTILITY.CPP|C:\USERS\JECKBRON101\DOWNLOADS\01_Y2S2_ASSIGN\DM2240_ADVGAMEDEVTECH\A1_SOURCETREE\COMMON\SOURCE\MATRIXSTACK.CPP|C:\USERS\JECKBRON101\DOWNLOADS\01_Y2S2_ASSIGN\DM2240_ADVGAMEDEVTECH\A1_SOURCETREE\COMMON\SOURCE\MESH.CPP|C:\USERS\JECKBRON101\DOWNLOADS\01_Y2S2_ASSIGN\DM2240_ADVGAMEDEVTECH\A1_SOURCETREE\COMMON\SOURCE\MESHBUILDER.CPP|C:\USERS\JECKBRON101\DOWNLOADS\01_Y2S2_ASSIGN\DM2240_ADVGAMEDEVTECH\A1_SOURCETREE\COMMON\SOURCE\MOUSECONTROLLER.CPP|C:\USERS\JECKBRON101\DOWNLOADS\01_Y2S2_ASSIGN\DM2240_ADVGAMEDEVTECH\A1_SOURCETREE\COMMON\SOURCE\MTX44.CPP|C:\USERS\JECKBRON101\DOWNLOADS\01_Y2S2_ASSIGN\DM2240_ADVGAMEDEVTECH\A1_SOURCETREE\COMMON\SOURCE\RENDERHELPER.CPP|C:\USERS\JECKBRON101\DOWNLOADS\01_Y2S2_ASSIGN\DM2240_ADVGAMEDEVTECH\A1_SOURCETREE\COMMON\SOURCE\SCENEMANAGER.CPP|C:\USERS\JECKBRON101\DOWNLOADS\01_Y2S2_ASSIGN\DM2240_ADVGAMEDEVTECH\A1_SOURCETREE\COMMON\SOURCE\SHADERPROGRAM.CPP|C:\USERS\JECKBRON101\DOWNLOADS\01_Y2S2_ASSIGN\DM2240_ADVGAMEDEVTECH\A1_SOURCETREE\COMMON\SOURCE\TIMER.CPP|C:\USERS\JECKBRON101\DOWNLOADS\01_Y2S2_ASSIGN\DM2240_ADVGAMEDEVTECH\A1_SOURCETREE\COMMON\SOURCE\UTILITY.CPP|C:\USERS\JECKBRON101\DOWNLOADS\01_Y2S2_ASSIGN\DM2240_ADVGAMEDEVTECH\A1_SOURCETREE\COMMON\SOURCE\VECTOR2.CPP|C:\USERS\JECKBRON101\DOWNLOADS\01_Y2S2_ASSIGN\DM2240_ADVGAMEDEVTECH\A1_SOURCETREE\COMMON\SOURCE\VECTOR3.CPP|C:\USERS\JECKBRON101\DOWNLOADS\01_Y2S2_ASSIGN\DM2240_ADVGAMEDEVTECH\A1_SOURCETREE\COMMON\SOURCE\WIN32INPUT.CPP
C:\USERS\JECKBRON101\DOWNLOADS\01_Y2S2_ASSIGN\DM2240_ADVGAMEDEVTECH\A1_SOURCETREE\COMMON\DEBUG\COMMON.PDB
C:\USERS\JECKBRON101\DOWNLOADS\01_Y2S2_ASSIGN\DM2240_ADVGAMEDEVTECH\A1_SOURCETREE\COMMON\DEBUG\COMMON.IDB
C:\USERS\JECKBRON101\DOWNLOADS\01_Y2S2_ASSIGN\DM2240_ADVGAMEDEVTECH\A1_SOURCETREE\COMMON\DEBUG\UTILITY.OBJ
C:\USERS\JECKBRON101\DOWNLOADS\01_Y2S2_ASSIGN\DM2240_ADVGAMEDEVTECH\A1_SOURCETREE\COMMON\DEBUG\TIMER.OBJ
C:\USERS\JECKBRON101\DOWNLOADS\01_Y2S2_ASSIGN\DM2240_ADVGAMEDEVTECH\A1_SOURCETREE\COMMON\DEBUG\SHADERPROGRAM.OBJ
C:\USERS\JECKBRON101\DOWNLOADS\01_Y2S2_ASSIGN\DM2240_ADVGAMEDEVTECH\A1_SOURCETREE\COMMON\DEBUG\SCENEMANAGER.OBJ
C:\USERS\JECKBRON101\DOWNLOADS\01_Y2S2_ASSIGN\DM2240_ADVGAMEDEVTECH\A1_SOURCETREE\COMMON\DEBUG\RENDERHELPER.OBJ
C:\USERS\JECKBRON101\DOWNLOADS\01_Y2S2_ASSIGN\DM2240_ADVGAMEDEVTECH\A1_SOURCETREE\COMMON\DEBUG\MTX44.OBJ
C:\USERS\JECKBRON101\DOWNLOADS\01_Y2S2_ASSIGN\DM2240_ADVGAMEDEVTECH\A1_SOURCETREE\COMMON\DEBUG\MOUSECONTROLLER.OBJ
C:\USERS\JECKBRON101\DOWNLOADS\01_Y2S2_ASSIGN\DM2240_ADVGAMEDEVTECH\A1_SOURCETREE\COMMON\DEBUG\MESHBUILDER.OBJ
C:\USERS\JECKBRON101\DOWNLOADS\01_Y2S2_ASSIGN\DM2240_ADVGAMEDEVTECH\A1_SOURCETREE\COMMON\DEBUG\MESH.OBJ
C:\USERS\JECKBRON101\DOWNLOADS\01_Y2S2_ASSIGN\DM2240_ADVGAMEDEVTECH\A1_SOURCETREE\COMMON\DEBUG\MATRIXSTACK.OBJ
C:\USERS\JECKBRON101\DOWNLOADS\01_Y2S2_ASSIGN\DM2240_ADVGAMEDEVTECH\A1_SOURCETREE\COMMON\DEBUG\MATHUTILITY.OBJ
C:\USERS\JECKBRON101\DOWNLOADS\01_Y2S2_ASSIGN\DM2240_ADVGAMEDEVTECH\A1_SOURCETREE\COMMON\DEBUG\LOADTGA.OBJ
C:\USERS\JECKBRON101\DOWNLOADS\01_Y2S2_ASSIGN\DM2240_ADVGAMEDEVTECH\A1_SOURCETREE\COMMON\DEBUG\LOADOBJ.OBJ
C:\USERS\JECKBRON101\DOWNLOADS\01_Y2S2_ASSIGN\DM2240_ADVGAMEDEVTECH\A1_SOURCETREE\COMMON\DEBUG\LIGHTBASE.OBJ
C:\USERS\JECKBRON101\DOWNLOADS\01_Y2S2_ASSIGN\DM2240_ADVGAMEDEVTECH\A1_SOURCETREE\COMMON\DEBUG\KEYBOARDCONTROLLER.OBJ
C:\USERS\JECKBRON101\DOWNLOADS\01_Y2S2_ASSIGN\DM2240_ADVGAMEDEVTECH\A1_SOURCETREE\COMMON\DEBUG\GRAPHICSMANAGER.OBJ
C:\USERS\JECKBRON101\DOWNLOADS\01_Y2S2_ASSIGN\DM2240_ADVGAMEDEVTECH\A1_SOURCETREE\COMMON\DEBUG\FPSCOUNTER.OBJ
C:\USERS\JECKBRON101\DOWNLOADS\01_Y2S2_ASSIGN\DM2240_ADVGAMEDEVTECH\A1_SOURCETREE\COMMON\DEBUG\ENTITYBASE.OBJ
C:\USERS\JECKBRON101\DOWNLOADS\01_Y2S2_ASSIGN\DM2240_ADVGAMEDEVTECH\A1_SOURCETREE\COMMON\DEBUG\COLLIDER.OBJ
C:\USERS\JECKBRON101\DOWNLOADS\01_Y2S2_ASSIGN\DM2240_ADVGAMEDEVTECH\A1_SOURCETREE\COMMON\DEBUG\CAMERABASE.OBJ
C:\USERS\JECKBRON101\DOWNLOADS\01_Y2S2_ASSIGN\DM2240_ADVGAMEDEVTECH\A1_SOURCETREE\COMMON\DEBUG\WIN32INPUT.OBJ
C:\USERS\JECKBRON101\DOWNLOADS\01_Y2S2_ASSIGN\DM2240_ADVGAMEDEVTECH\A1_SOURCETREE\COMMON\DEBUG\VECTOR3.OBJ
C:\USERS\JECKBRON101\DOWNLOADS\01_Y2S2_ASSIGN\DM2240_ADVGAMEDEVTECH\A1_SOURCETREE\COMMON\DEBUG\VECTOR2.OBJ
^C:\USERS\JECKBRON101\DOWNLOADS\01_Y2S2_ASSIGN\DM2240_ADVGAMEDEVTECH\A1_SOURCETREE\COMMON\SOURCE\CAMERABASE.CPP
C:\USERS\JECKBRON101\DOWNLOADS\01_Y2S2_ASSIGN\DM2240_ADVGAMEDEVTECH\A1_SOURCETREE\COMMON\DEBUG\COMMON.PDB
^C:\USERS\JECKBRON101\DOWNLOADS\01_Y2S2_ASSIGN\DM2240_ADVGAMEDEVTECH\A1_SOURCETREE\COMMON\SOURCE\COLLIDER\COLLIDER.CPP
C:\USERS\JECKBRON101\DOWNLOADS\01_Y2S2_ASSIGN\DM2240_ADVGAMEDEVTECH\A1_SOURCETREE\COMMON\DEBUG\COMMON.PDB
^C:\USERS\JECKBRON101\DOWNLOADS\01_Y2S2_ASSIGN\DM2240_ADVGAMEDEVTECH\A1_SOURCETREE\COMMON\SOURCE\ENTITYBASE.CPP
C:\USERS\JECKBRON101\DOWNLOADS\01_Y2S2_ASSIGN\DM2240_ADVGAMEDEVTECH\A1_SOURCETREE\COMMON\DEBUG\COMMON.PDB
^C:\USERS\JECKBRON101\DOWNLOADS\01_Y2S2_ASSIGN\DM2240_ADVGAMEDEVTECH\A1_SOURCETREE\COMMON\SOURCE\FPSCOUNTER.CPP
C:\USERS\JECKBRON101\DOWNLOADS\01_Y2S2_ASSIGN\DM2240_ADVGAMEDEVTECH\A1_SOURCETREE\COMMON\DEBUG\COMMON.PDB
^C:\USERS\JECKBRON101\DOWNLOADS\01_Y2S2_ASSIGN\DM2240_ADVGAMEDEVTECH\A1_SOURCETREE\COMMON\SOURCE\GRAPHICSMANAGER.CPP
C:\USERS\JECKBRON101\DOWNLOADS\01_Y2S2_ASSIGN\DM2240_ADVGAMEDEVTECH\A1_SOURCETREE\COMMON\DEBUG\COMMON.PDB
^C:\USERS\JECKBRON101\DOWNLOADS\01_Y2S2_ASSIGN\DM2240_ADVGAMEDEVTECH\A1_SOURCETREE\COMMON\SOURCE\KEYBOARDCONTROLLER.CPP
C:\USERS\JECKBRON101\DOWNLOADS\01_Y2S2_ASSIGN\DM2240_ADVGAMEDEVTECH\A1_SOURCETREE\COMMON\DEBUG\COMMON.PDB
^C:\USERS\JECKBRON101\DOWNLOADS\01_Y2S2_ASSIGN\DM2240_ADVGAMEDEVTECH\A1_SOURCETREE\COMMON\SOURCE\LIGHTBASE.CPP
C:\USERS\JECKBRON101\DOWNLOADS\01_Y2S2_ASSIGN\DM2240_ADVGAMEDEVTECH\A1_SOURCETREE\COMMON\DEBUG\COMMON.PDB
^C:\USERS\JECKBRON101\DOWNLOADS\01_Y2S2_ASSIGN\DM2240_ADVGAMEDEVTECH\A1_SOURCETREE\COMMON\SOURCE\LOADOBJ.CPP
C:\USERS\JECKBRON101\DOWNLOADS\01_Y2S2_ASSIGN\DM2240_ADVGAMEDEVTECH\A1_SOURCETREE\COMMON\DEBUG\COMMON.PDB
^C:\USERS\JECKBRON101\DOWNLOADS\01_Y2S2_ASSIGN\DM2240_ADVGAMEDEVTECH\A1_SOURCETREE\COMMON\SOURCE\LOADTGA.CPP
C:\USERS\JECKBRON101\DOWNLOADS\01_Y2S2_ASSIGN\DM2240_ADVGAMEDEVTECH\A1_SOURCETREE\COMMON\DEBUG\COMMON.PDB
^C:\USERS\JECKBRON101\DOWNLOADS\01_Y2S2_ASSIGN\DM2240_ADVGAMEDEVTECH\A1_SOURCETREE\COMMON\SOURCE\MATHUTILITY.CPP
C:\USERS\JECKBRON101\DOWNLOADS\01_Y2S2_ASSIGN\DM2240_ADVGAMEDEVTECH\A1_SOURCETREE\COMMON\DEBUG\COMMON.PDB
^C:\USERS\JECKBRON101\DOWNLOADS\01_Y2S2_ASSIGN\DM2240_ADVGAMEDEVTECH\A1_SOURCETREE\COMMON\SOURCE\MATRIXSTACK.CPP
C:\USERS\JECKBRON101\DOWNLOADS\01_Y2S2_ASSIGN\DM2240_ADVGAMEDEVTECH\A1_SOURCETREE\COMMON\DEBUG\COMMON.PDB
^C:\USERS\JECKBRON101\DOWNLOADS\01_Y2S2_ASSIGN\DM2240_ADVGAMEDEVTECH\A1_SOURCETREE\COMMON\SOURCE\MESH.CPP
C:\USERS\JECKBRON101\DOWNLOADS\01_Y2S2_ASSIGN\DM2240_ADVGAMEDEVTECH\A1_SOURCETREE\COMMON\DEBUG\COMMON.PDB
^C:\USERS\JECKBRON101\DOWNLOADS\01_Y2S2_ASSIGN\DM2240_ADVGAMEDEVTECH\A1_SOURCETREE\COMMON\SOURCE\MESHBUILDER.CPP
C:\USERS\JECKBRON101\DOWNLOADS\01_Y2S2_ASSIGN\DM2240_ADVGAMEDEVTECH\A1_SOURCETREE\COMMON\DEBUG\COMMON.PDB
^C:\USERS\JECKBRON101\DOWNLOADS\01_Y2S2_ASSIGN\DM2240_ADVGAMEDEVTECH\A1_SOURCETREE\COMMON\SOURCE\MOUSECONTROLLER.CPP
C:\USERS\JECKBRON101\DOWNLOADS\01_Y2S2_ASSIGN\DM2240_ADVGAMEDEVTECH\A1_SOURCETREE\COMMON\DEBUG\COMMON.PDB
^C:\USERS\JECKBRON101\DOWNLOADS\01_Y2S2_ASSIGN\DM2240_ADVGAMEDEVTECH\A1_SOURCETREE\COMMON\SOURCE\MTX44.CPP
C:\USERS\JECKBRON101\DOWNLOADS\01_Y2S2_ASSIGN\DM2240_ADVGAMEDEVTECH\A1_SOURCETREE\COMMON\DEBUG\COMMON.PDB
^C:\USERS\JECKBRON101\DOWNLOADS\01_Y2S2_ASSIGN\DM2240_ADVGAMEDEVTECH\A1_SOURCETREE\COMMON\SOURCE\RENDERHELPER.CPP
C:\USERS\JECKBRON101\DOWNLOADS\01_Y2S2_ASSIGN\DM2240_ADVGAMEDEVTECH\A1_SOURCETREE\COMMON\DEBUG\COMMON.PDB
^C:\USERS\JECKBRON101\DOWNLOADS\01_Y2S2_ASSIGN\DM2240_ADVGAMEDEVTECH\A1_SOURCETREE\COMMON\SOURCE\SCENEMANAGER.CPP
C:\USERS\JECKBRON101\DOWNLOADS\01_Y2S2_ASSIGN\DM2240_ADVGAMEDEVTECH\A1_SOURCETREE\COMMON\DEBUG\COMMON.PDB
^C:\USERS\JECKBRON101\DOWNLOADS\01_Y2S2_ASSIGN\DM2240_ADVGAMEDEVTECH\A1_SOURCETREE\COMMON\SOURCE\SHADERPROGRAM.CPP
C:\USERS\JECKBRON101\DOWNLOADS\01_Y2S2_ASSIGN\DM2240_ADVGAMEDEVTECH\A1_SOURCETREE\COMMON\DEBUG\COMMON.PDB
^C:\USERS\JECKBRON101\DOWNLOADS\01_Y2S2_ASSIGN\DM2240_ADVGAMEDEVTECH\A1_SOURCETREE\COMMON\SOURCE\TIMER.CPP
C:\USERS\JECKBRON101\DOWNLOADS\01_Y2S2_ASSIGN\DM2240_ADVGAMEDEVTECH\A1_SOURCETREE\COMMON\DEBUG\COMMON.PDB
^C:\USERS\JECKBRON101\DOWNLOADS\01_Y2S2_ASSIGN\DM2240_ADVGAMEDEVTECH\A1_SOURCETREE\COMMON\SOURCE\UTILITY.CPP
C:\USERS\JECKBRON101\DOWNLOADS\01_Y2S2_ASSIGN\DM2240_ADVGAMEDEVTECH\A1_SOURCETREE\COMMON\DEBUG\COMMON.PDB
^C:\USERS\JECKBRON101\DOWNLOADS\01_Y2S2_ASSIGN\DM2240_ADVGAMEDEVTECH\A1_SOURCETREE\COMMON\SOURCE\VECTOR2.CPP
C:\USERS\JECKBRON101\DOWNLOADS\01_Y2S2_ASSIGN\DM2240_ADVGAMEDEVTECH\A1_SOURCETREE\COMMON\DEBUG\COMMON.PDB
^C:\USERS\JECKBRON101\DOWNLOADS\01_Y2S2_ASSIGN\DM2240_ADVGAMEDEVTECH\A1_SOURCETREE\COMMON\SOURCE\VECTOR3.CPP
C:\USERS\JECKBRON101\DOWNLOADS\01_Y2S2_ASSIGN\DM2240_ADVGAMEDEVTECH\A1_SOURCETREE\COMMON\DEBUG\COMMON.PDB
^C:\USERS\JECKBRON101\DOWNLOADS\01_Y2S2_ASSIGN\DM2240_ADVGAMEDEVTECH\A1_SOURCETREE\COMMON\SOURCE\WIN32INPUT.CPP
C:\USERS\JECKBRON101\DOWNLOADS\01_Y2S2_ASSIGN\DM2240_ADVGAMEDEVTECH\A1_SOURCETREE\COMMON\DEBUG\COMMON.PDB
